{
  "result": {
    "item": "minecraft:wooden_pickaxe"
  },
  "type": "add_glyph",
  "ingredients": [
    {
      "item": "minecraft:wooden_pickaxe",
      "data": 32767
    },
    {
      "item": "arcanemagic:speedGlyph"
    }
  ]
}